Counting COVID
…
Extract or create new objects

You can call a single part of the data frame

cdc$Distribution

## # A tibble: 185 x 1
##    Distribution
##           <dbl>
##  1         53.3
##  2         23  
##  3          0.6
##  4          5.1
##  5         16.5
##  6          1.4
##  7         51.7
##  8         45.4
##  9          1.9
## 10         49.6
## # … with 175 more rows
…
